{
  "Doctor": {
    "Booking": {
      "username": "Bindu Guleria",
      "reason": "Toothache",
      "start_time": "2019-02-04 10:26:43.000000",
      "end_time": "2019-02-04 11:19:29.000000"
    }
  }
}